como compilar el texto utilizar el siguiente:
------------------------------------------------
$ as -o archivo.o archivo.s
$ ld -o archivo archivo.0
------------------------------------------------
Para desamplar el codigo utilizar el código:
------------------------------------------------
$ objdump -s -d movexamps.o


